{
    "org.devgeeks.Canvas2ImagePlugin": {
        "source": {
            "type": "git",
            "url": "https://github.com/devgeeks/Canvas2ImagePlugin.git",
            "subdir": "."
        },
        "is_top_level": true,
        "variables": {}
    },
    "nl.x-services.plugins.socialsharing": {
        "source": {
            "type": "git",
            "url": "https://github.com/EddyVerbruggen/SocialSharing-PhoneGap-Plugin.git",
            "subdir": "."
        },
        "is_top_level": true,
        "variables": {}
    },
    "cordova-plugin-device": {
        "source": {
            "type": "registry",
            "id": "cordova-plugin-device"
        },
        "is_top_level": true,
        "variables": {}
    },
    "cordova-plugin-console": {
        "source": {
            "type": "registry",
            "id": "cordova-plugin-console"
        },
        "is_top_level": true,
        "variables": {}
    },
    "com.ionic.keyboard": {
        "source": {
            "type": "registry",
            "id": "com.ionic.keyboard"
        },
        "is_top_level": true,
        "variables": {}
    },
    "com.unarin.cordova.beacon": {
        "source": {
            "type": "git",
            "url": "https://github.com/petermetz/cordova-plugin-ibeacon.git",
            "subdir": "."
        },
        "is_top_level": true,
        "variables": {}
    },
    "cordova-plugin-whitelist": {
        "source": {
            "type": "registry",
            "id": "cordova-plugin-whitelist@1.0.0"
        },
        "is_top_level": true,
        "variables": {}
    },
    "cordova-plugin-splashscreen": {
        "source": {
            "type": "registry",
            "id": "cordova-plugin-splashscreen"
        },
        "is_top_level": true,
        "variables": {}
    },
    "cordova-plugin-camera": {
        "source": {
            "type": "registry",
            "id": "cordova-plugin-camera"
        },
        "is_top_level": true,
        "variables": {}
    },
    "nl.x-services.plugins.toast": {
        "source": {
            "type": "git",
            "url": "https://github.com/EddyVerbruggen/Toast-PhoneGap-Plugin.git",
            "subdir": "."
        },
        "is_top_level": true,
        "variables": {}
    },
    "cordova-plugin-media-capture": {
        "source": {
            "type": "registry",
            "id": "cordova-plugin-media-capture"
        },
        "is_top_level": true,
        "variables": {}
    },
    "cordova-plugin-file": {
        "source": {
            "type": "registry",
            "id": "cordova-plugin-file"
        },
        "is_top_level": false,
        "variables": {}
    }
}